Pynq-Z2/SoC_FSM_ROM_Neopixel/RGBVivado.sim/sim_1/behav/xsim/dumpports.vcd
$date
   Thu Mar  9 18:30:46 2023
$end
$version
  2022.1
$end
$timescale
  1ps
$end
$scope module design_1_wrapper.design_1_i.NeoPixel_0 $end
$var port 1 <0 clk $end
$var port [5:0] <1 addr $end
$var port [23:0] <2 value $end
$var port 1 <3 d_out $end
$upscope $end
$enddefinitions $end
#0
$dumpports
pD 6 0 <0
pXXXXXX 666666 666666 <1
pDDDDDDDDDDDDDDDDDDDDDDDD 666666666666666666666666 000000000000000000000000 <2
pX 6 6 <3
$end
#1000000
pD 6 0 <0
#1000010
pU 0 6 <0
#1000020
pD 6 0 <0
#1000030
pU 0 6 <0
pLLLLLL 666666 000000 <1
#1000040
pD 6 0 <0
#1000050
pU 0 6 <0
#1000060
pD 6 0 <0
#1000070
pU 0 6 <0
#1000080
pD 6 0 <0
#1000090
pU 0 6 <0
#1000100
pD 6 0 <0
#1000110
pU 0 6 <0
pH 0 6 <3
#1000120
pD 6 0 <0
#1000130
pU 0 6 <0
#1000140
pD 6 0 <0
#1000150
pU 0 6 <0
#1000160
pD 6 0 <0
#1000170
pU 0 6 <0
#1000180
pD 6 0 <0
#1000190
pU 0 6 <0
#1000200
pD 6 0 <0
#1000210
pU 0 6 <0
#1000220
pD 6 0 <0
#1000230
pU 0 6 <0
#1000240
pD 6 0 <0
#1000250
pU 0 6 <0
#1000260
pD 6 0 <0
#1000270
pU 0 6 <0
#1000280
pD 6 0 <0
#1000290
pU 0 6 <0
#1000300
pD 6 0 <0
#1000310
pU 0 6 <0
#1000320
pD 6 0 <0
#1000330
pU 0 6 <0
#1000340
pD 6 0 <0
#1000350
pU 0 6 <0
#1000360
pD 6 0 <0
#1000370
pU 0 6 <0
#1000380
pD 6 0 <0
#1000390
pU 0 6 <0
#1000400
pD 6 0 <0
#1000410
pU 0 6 <0
#1000420
pD 6 0 <0
#1000430
pU 0 6 <0
#1000440
pD 6 0 <0
#1000450
pU 0 6 <0
#1000460
pD 6 0 <0
#1000470
pU 0 6 <0
#1000480
pD 6 0 <0
#1000490
pU 0 6 <0
#1000500
pD 6 0 <0
#1000510
pU 0 6 <0
pL 6 0 <3
#1000520
pD 6 0 <0
#1000530
pU 0 6 <0
#1000540
pD 6 0 <0
#1000550
pU 0 6 <0
#1000560
pD 6 0 <0
#1000570
pU 0 6 <0
#1000580
pD 6 0 <0
#1000590
pU 0 6 <0
#1000600
pD 6 0 <0
#1000610
pU 0 6 <0
#1000620
pD 6 0 <0
#1000630
pU 0 6 <0
#1000640
pD 6 0 <0
#1000650
pU 0 6 <0
#1000660
pD 6 0 <0
#1000670
pU 0 6 <0
#1000680
pD 6 0 <0
#1000690
pU 0 6 <0
#1000700
pD 6 0 <0
#1000710
pU 0 6 <0
#1000720
pD 6 0 <0
#1000730
pU 0 6 <0
#1000740
pD 6 0 <0
#1000750
pU 0 6 <0
#1000760
pD 6 0 <0
#1000770
pU 0 6 <0
#1000780
pD 6 0 <0
#1000790
pU 0 6 <0
#1000800
pD 6 0 <0
#1000810
pU 0 6 <0
#1000820
pD 6 0 <0
#1000830
pU 0 6 <0
#1000840
pD 6 0 <0
#1000850
pU 0 6 <0
#1000860
pD 6 0 <0
#1000870
pU 0 6 <0
#1000880
pD 6 0 <0
#1000890
pU 0 6 <0
#1000900
pD 6 0 <0
#1000910
pU 0 6 <0
#1000920
pD 6 0 <0
#1000930
pU 0 6 <0
#1000940
pD 6 0 <0
#1000950
pU 0 6 <0
#1000960
pD 6 0 <0
#1000970
pU 0 6 <0
#1000980
pD 6 0 <0
#1000990
pU 0 6 <0
#1001000
pD 6 0 <0
#1001010
pU 0 6 <0
#1001020
pD 6 0 <0
#1001030
pU 0 6 <0
#1001040
pD 6 0 <0
#1001050
pU 0 6 <0
#1001060
pD 6 0 <0
#1001070
pU 0 6 <0
#1001080
pD 6 0 <0
#1001090
pU 0 6 <0
#1001100
pD 6 0 <0
#1001110
pU 0 6 <0
#1001120
pD 6 0 <0
#1001130
pU 0 6 <0
#1001140
pD 6 0 <0
#1001150
pU 0 6 <0
#1001160
pD 6 0 <0
#1001170
pU 0 6 <0
#1001180
pD 6 0 <0
#1001190
pU 0 6 <0
#1001200
pD 6 0 <0
#1001210
pU 0 6 <0
#1001220
pD 6 0 <0
#1001230
pU 0 6 <0
#1001240
pD 6 0 <0
#1001250
pU 0 6 <0
#1001260
pD 6 0 <0
#1001270
pU 0 6 <0
#1001280
pD 6 0 <0
#1001290
pU 0 6 <0
#1001300
pD 6 0 <0
#1001310
pU 0 6 <0
#1001320
pD 6 0 <0
#1001330
pU 0 6 <0
#1001340
pD 6 0 <0
#1001350
pU 0 6 <0
#1001360
pD 6 0 <0
#1001370
pU 0 6 <0
#1001380
pD 6 0 <0
#1001390
pU 0 6 <0
#1001400
pD 6 0 <0
#1001410
pU 0 6 <0
#1001420
pD 6 0 <0
#1001430
pU 0 6 <0
pH 0 6 <3
#1001440
pD 6 0 <0
#1001450
pU 0 6 <0
#1001460
pD 6 0 <0
#1001470
pU 0 6 <0
#1001480
pD 6 0 <0
#1001490
pU 0 6 <0
#1001500
pD 6 0 <0
#1001510
pU 0 6 <0
#1001520
pD 6 0 <0
#1001530
pU 0 6 <0
#1001540
pD 6 0 <0
#1001550
pU 0 6 <0
#1001560
pD 6 0 <0
#1001570
pU 0 6 <0
#1001580
pD 6 0 <0
#1001590
pU 0 6 <0
#1001600
pD 6 0 <0
#1001610
pU 0 6 <0
#1001620
pD 6 0 <0
#1001630
pU 0 6 <0
#1001640
pD 6 0 <0
#1001650
pU 0 6 <0
#1001660
pD 6 0 <0
#1001670
pU 0 6 <0
#1001680
pD 6 0 <0
#1001690
pU 0 6 <0
#1001700
pD 6 0 <0
#1001710
pU 0 6 <0
#1001720
pD 6 0 <0
#1001730
pU 0 6 <0
#1001740
pD 6 0 <0
#1001750
pU 0 6 <0
#1001760
pD 6 0 <0
#1001770
pU 0 6 <0
#1001780
pD 6 0 <0
#1001790
pU 0 6 <0
#1001800
pD 6 0 <0
#1001810
pU 0 6 <0
#1001820
pD 6 0 <0
#1001830
pU 0 6 <0
pL 6 0 <3
#1001840
pD 6 0 <0
#1001850
pU 0 6 <0
#1001860
pD 6 0 <0
#1001870
pU 0 6 <0
#1001880
pD 6 0 <0
#1001890
pU 0 6 <0
#1001900
pD 6 0 <0
#1001910
pU 0 6 <0
#1001920
pD 6 0 <0
#1001930
pU 0 6 <0
#1001940
pD 6 0 <0
#1001950
pU 0 6 <0
#1001960
pD 6 0 <0
#1001970
pU 0 6 <0
#1001980
pD 6 0 <0
#1001990
pU 0 6 <0
#1002000
pD 6 0 <0
#1002010
pU 0 6 <0
#1002020
pD 6 0 <0
#1002030
pU 0 6 <0
#1002040
pD 6 0 <0
#1002050
pU 0 6 <0
#1002060
pD 6 0 <0
#1002070
pU 0 6 <0
#1002080
pD 6 0 <0
#1002090
pU 0 6 <0
#1002100
pD 6 0 <0
#1002110
pU 0 6 <0
#1002120
pD 6 0 <0
#1002130
pU 0 6 <0
#1002140
pD 6 0 <0
#1002150
pU 0 6 <0
#1002160
pD 6 0 <0
#1002170
pU 0 6 <0
#1002180
pD 6 0 <0
#1002190
pU 0 6 <0
#1002200
pD 6 0 <0
#1002210
pU 0 6 <0
#1002220
pD 6 0 <0
#1002230
pU 0 6 <0
#1002240
pD 6 0 <0
#1002250
pU 0 6 <0
#1002260
pD 6 0 <0
#1002270
pU 0 6 <0
#1002280
pD 6 0 <0
#1002290
pU 0 6 <0
#1002300
pD 6 0 <0
#1002310
pU 0 6 <0
#1002320
pD 6 0 <0
#1002330
pU 0 6 <0
#1002340
pD 6 0 <0
#1002350
pU 0 6 <0
#1002360
pD 6 0 <0
#1002370
pU 0 6 <0
#1002380
pD 6 0 <0
#1002390
pU 0 6 <0
#1002400
pD 6 0 <0
#1002410
pU 0 6 <0
#1002420
pD 6 0 <0
#1002430
pU 0 6 <0
#1002440
pD 6 0 <0
#1002450
pU 0 6 <0
#1002460
pD 6 0 <0
#1002470
pU 0 6 <0
#1002480
pD 6 0 <0
#1002490
pU 0 6 <0
#1002500
pD 6 0 <0
#1002510
pU 0 6 <0
#1002520
pD 6 0 <0
#1002530
pU 0 6 <0
#1002540
pD 6 0 <0
#1002550
pU 0 6 <0
#1002560
pD 6 0 <0
#1002570
pU 0 6 <0
#1002580
pD 6 0 <0
#1002590
pU 0 6 <0
#1002600
pD 6 0 <0
#1002610
pU 0 6 <0
#1002620
pD 6 0 <0
#1002630
pU 0 6 <0
#1002640
pD 6 0 <0
#1002650
pU 0 6 <0
#1002660
pD 6 0 <0
#1002670
pU 0 6 <0
#1002680
pD 6 0 <0
#1002690
pU 0 6 <0
#1002700
pD 6 0 <0
#1002710
pU 0 6 <0
#1002720
pD 6 0 <0
#1002730
pU 0 6 <0
#1002740
pD 6 0 <0
#1002750
pU 0 6 <0
pH 0 6 <3
#1002760
pD 6 0 <0
#1002770
pU 0 6 <0
#1002780
pD 6 0 <0
#1002790
pU 0 6 <0
#1002800
pD 6 0 <0
#1002810
pU 0 6 <0
#1002820
pD 6 0 <0
#1002830
pU 0 6 <0
#1002840
pD 6 0 <0
#1002850
pU 0 6 <0
#1002860
pD 6 0 <0
#1002870
pU 0 6 <0
#1002880
pD 6 0 <0
#1002890
pU 0 6 <0
#1002900
pD 6 0 <0
#1002910
pU 0 6 <0
#1002920
pD 6 0 <0
#1002930
pU 0 6 <0
#1002940
pD 6 0 <0
#1002950
pU 0 6 <0
#1002960
pD 6 0 <0
#1002970
pU 0 6 <0
#1002980
pD 6 0 <0
#1002990
pU 0 6 <0
#1003000
pD 6 0 <0
#1003010
pU 0 6 <0
#1003020
pD 6 0 <0
#1003030
pU 0 6 <0
#1003040
pD 6 0 <0
#1003050
pU 0 6 <0
#1003060
pD 6 0 <0
#1003070
pU 0 6 <0
#1003080
pD 6 0 <0
#1003090
pU 0 6 <0
#1003100
pD 6 0 <0
#1003110
pU 0 6 <0
#1003120
pD 6 0 <0
#1003130
pU 0 6 <0
#1003140
pD 6 0 <0
#1003150
pU 0 6 <0
pL 6 0 <3
#1003160
pD 6 0 <0
#1003170
pU 0 6 <0
#1003180
pD 6 0 <0
#1003190
pU 0 6 <0
#1003200
pD 6 0 <0
#1003210
pU 0 6 <0
#1003220
pD 6 0 <0
#1003230
pU 0 6 <0
#1003240
pD 6 0 <0
#1003250
pU 0 6 <0
#1003260
pD 6 0 <0
#1003270
pU 0 6 <0
#1003280
pD 6 0 <0
#1003290
pU 0 6 <0
#1003300
pD 6 0 <0
#1003310
pU 0 6 <0
#1003320
pD 6 0 <0
#1003330
pU 0 6 <0
#1003340
pD 6 0 <0
#1003350
pU 0 6 <0
#1003360
pD 6 0 <0
#1003370
pU 0 6 <0
#1003380
pD 6 0 <0
#1003390
pU 0 6 <0
#1003400
pD 6 0 <0
#1003410
pU 0 6 <0
#1003420
pD 6 0 <0
#1003430
pU 0 6 <0
#1003440
pD 6 0 <0
#1003450
pU 0 6 <0
#1003460
pD 6 0 <0
#1003470
pU 0 6 <0
#1003480
pD 6 0 <0
#1003490
pU 0 6 <0
#1003500
pD 6 0 <0
#1003510
pU 0 6 <0
#1003520
pD 6 0 <0
#1003530
pU 0 6 <0
#1003540
pD 6 0 <0
#1003550
pU 0 6 <0
#1003560
pD 6 0 <0
#1003570
pU 0 6 <0
#1003580
pD 6 0 <0
#1003590
pU 0 6 <0
#1003600
pD 6 0 <0
#1003610
pU 0 6 <0
#1003620
pD 6 0 <0
#1003630
pU 0 6 <0
#1003640
pD 6 0 <0
#1003650
pU 0 6 <0
#1003660
pD 6 0 <0
#1003670
pU 0 6 <0
#1003680
pD 6 0 <0
#1003690
pU 0 6 <0
#1003700
pD 6 0 <0
#1003710
pU 0 6 <0
#1003720
pD 6 0 <0
#1003730
pU 0 6 <0
#1003740
pD 6 0 <0
#1003750
pU 0 6 <0
#1003760
pD 6 0 <0
#1003770
pU 0 6 <0
#1003780
pD 6 0 <0
#1003790
pU 0 6 <0
#1003800
pD 6 0 <0
#1003810
pU 0 6 <0
#1003820
pD 6 0 <0
#1003830
pU 0 6 <0
#1003840
pD 6 0 <0
#1003850
pU 0 6 <0
#1003860
pD 6 0 <0
#1003870
pU 0 6 <0
#1003880
pD 6 0 <0
#1003890
pU 0 6 <0
#1003900
pD 6 0 <0
#1003910
pU 0 6 <0
#1003920
pD 6 0 <0
#1003930
pU 0 6 <0
#1003940
pD 6 0 <0
#1003950
pU 0 6 <0
#1003960
pD 6 0 <0
#1003970
pU 0 6 <0
#1003980
pD 6 0 <0
#1003990
pU 0 6 <0
#1004000
pD 6 0 <0
#1004010
pU 0 6 <0
#1004020
pD 6 0 <0
#1004030
pU 0 6 <0
#1004040
pD 6 0 <0
#1004050
pU 0 6 <0
#1004060
pD 6 0 <0
#1004070
pU 0 6 <0
pH 0 6 <3
#1004080
pD 6 0 <0
#1004090
pU 0 6 <0
#1004100
pD 6 0 <0
#1004110
pU 0 6 <0
#1004120
pD 6 0 <0
#1004130
pU 0 6 <0
#1004140
pD 6 0 <0
#1004150
pU 0 6 <0
#1004160
pD 6 0 <0
#1004170
pU 0 6 <0
#1004180
pD 6 0 <0
#1004190
pU 0 6 <0
#1004200
pD 6 0 <0
#1004210
pU 0 6 <0
#1004220
pD 6 0 <0
#1004230
pU 0 6 <0
#1004240
pD 6 0 <0
#1004250
pU 0 6 <0
#1004260
pD 6 0 <0
#1004270
pU 0 6 <0
#1004280
pD 6 0 <0
#1004290
pU 0 6 <0
#1004300
pD 6 0 <0
#1004310
pU 0 6 <0
#1004320
pD 6 0 <0
#1004330
pU 0 6 <0
#1004340
pD 6 0 <0
#1004350
pU 0 6 <0
#1004360
pD 6 0 <0
#1004370
pU 0 6 <0
#1004380
pD 6 0 <0
#1004390
pU 0 6 <0
#1004400
pD 6 0 <0
#1004410
pU 0 6 <0
#1004420
pD 6 0 <0
#1004430
pU 0 6 <0
#1004440
pD 6 0 <0
#1004450
pU 0 6 <0
#1004460
pD 6 0 <0
#1004470
pU 0 6 <0
pL 6 0 <3
#1004480
pD 6 0 <0
#1004490
pU 0 6 <0
#1004500
pD 6 0 <0
#1004510
pU 0 6 <0
#1004520
pD 6 0 <0
#1004530
pU 0 6 <0
#1004540
pD 6 0 <0
#1004550
pU 0 6 <0
#1004560
pD 6 0 <0
#1004570
pU 0 6 <0
#1004580
pD 6 0 <0
#1004590
pU 0 6 <0
#1004600
pD 6 0 <0
#1004610
pU 0 6 <0
#1004620
pD 6 0 <0
#1004630
pU 0 6 <0
#1004640
pD 6 0 <0
#1004650
pU 0 6 <0
#1004660
pD 6 0 <0
#1004670
pU 0 6 <0
#1004680
pD 6 0 <0
#1004690
pU 0 6 <0
#1004700
pD 6 0 <0
#1004710
pU 0 6 <0
#1004720
pD 6 0 <0
#1004730
pU 0 6 <0
#1004740
pD 6 0 <0
#1004750
pU 0 6 <0
#1004760
pD 6 0 <0
#1004770
pU 0 6 <0
#1004780
pD 6 0 <0
#1004790
pU 0 6 <0
#1004800
pD 6 0 <0
#1004810
pU 0 6 <0
#1004820
pD 6 0 <0
#1004830
pU 0 6 <0
#1004840
pD 6 0 <0
#1004850
pU 0 6 <0
#1004860
pD 6 0 <0
#1004870
pU 0 6 <0
#1004880
pD 6 0 <0
#1004890
pU 0 6 <0
#1004900
pD 6 0 <0
#1004910
pU 0 6 <0
#1004920
pD 6 0 <0
#1004930
pU 0 6 <0
#1004940
pD 6 0 <0
#1004950
pU 0 6 <0
#1004960
pD 6 0 <0
#1004970
pU 0 6 <0
#1004980
pD 6 0 <0
#1004990
pU 0 6 <0
#1005000
pD 6 0 <0
#1005010
pU 0 6 <0
#1005020
pD 6 0 <0
#1005030
pU 0 6 <0
#1005040
pD 6 0 <0
#1005050
pU 0 6 <0
#1005060
pD 6 0 <0
#1005070
pU 0 6 <0
#1005080
pD 6 0 <0
#1005090
pU 0 6 <0
#1005100
pD 6 0 <0
#1005110
pU 0 6 <0
#1005120
pD 6 0 <0
#1005130
pU 0 6 <0
#1005140
pD 6 0 <0
#1005150
pU 0 6 <0
#1005160
pD 6 0 <0
#1005170
pU 0 6 <0
#1005180
pD 6 0 <0
#1005190
pU 0 6 <0
#1005200
pD 6 0 <0
#1005210
pU 0 6 <0
#1005220
pD 6 0 <0
#1005230
pU 0 6 <0
#1005240
pD 6 0 <0
#1005250
pU 0 6 <0
#1005260
pD 6 0 <0
#1005270
pU 0 6 <0
#1005280
pD 6 0 <0
#1005290
pU 0 6 <0
#1005300
pD 6 0 <0
#1005310
pU 0 6 <0
#1005320
pD 6 0 <0
#1005330
pU 0 6 <0
#1005340
pD 6 0 <0
#1005350
pU 0 6 <0
#1005360
pD 6 0 <0
#1005370
pU 0 6 <0
#1005380
pD 6 0 <0
#1005390
pU 0 6 <0
pH 0 6 <3
#1005400
pD 6 0 <0
#1005410
pU 0 6 <0
#1005420
pD 6 0 <0
#1005430
pU 0 6 <0
#1005440
pD 6 0 <0
#1005450
pU 0 6 <0
#1005460
pD 6 0 <0
#1005470
pU 0 6 <0
#1005480
pD 6 0 <0
#1005490
pU 0 6 <0
#1005500
pD 6 0 <0
#1005510
pU 0 6 <0
#1005520
pD 6 0 <0
#1005530
pU 0 6 <0
#1005540
pD 6 0 <0
#1005550
pU 0 6 <0
#1005560
pD 6 0 <0
#1005570
pU 0 6 <0
#1005580
pD 6 0 <0
#1005590
pU 0 6 <0
#1005600
pD 6 0 <0
#1005610
pU 0 6 <0
#1005620
pD 6 0 <0
#1005630
pU 0 6 <0
#1005640
pD 6 0 <0
#1005650
pU 0 6 <0
#1005660
pD 6 0 <0
#1005670
pU 0 6 <0
#1005680
pD 6 0 <0
#1005690
pU 0 6 <0
#1005700
pD 6 0 <0
#1005710
pU 0 6 <0
#1005720
pD 6 0 <0
#1005730
pU 0 6 <0
#1005740
pD 6 0 <0
#1005750
pU 0 6 <0
#1005760
pD 6 0 <0
#1005770
pU 0 6 <0
#1005780
pD 6 0 <0
#1005790
pU 0 6 <0
pL 6 0 <3
#1005800
pD 6 0 <0
#1005810
pU 0 6 <0
#1005820
pD 6 0 <0
#1005830
pU 0 6 <0
#1005840
pD 6 0 <0
#1005850
pU 0 6 <0
#1005860
pD 6 0 <0
#1005870
pU 0 6 <0
#1005880
pD 6 0 <0
#1005890
pU 0 6 <0
#1005900
pD 6 0 <0
#1005910
pU 0 6 <0
#1005920
pD 6 0 <0
#1005930
pU 0 6 <0
#1005940
pD 6 0 <0
#1005950
pU 0 6 <0
#1005960
pD 6 0 <0
#1005970
pU 0 6 <0
#1005980
pD 6 0 <0
#1005990
pU 0 6 <0
#1006000
pD 6 0 <0
#1006010
pU 0 6 <0
#1006020
pD 6 0 <0
#1006030
pU 0 6 <0
#1006040
pD 6 0 <0
#1006050
pU 0 6 <0
#1006060
pD 6 0 <0
#1006070
pU 0 6 <0
#1006080
pD 6 0 <0
#1006090
pU 0 6 <0
#1006100
pD 6 0 <0
#1006110
pU 0 6 <0
#1006120
pD 6 0 <0
#1006130
pU 0 6 <0
#1006140
pD 6 0 <0
#1006150
pU 0 6 <0
#1006160
pD 6 0 <0
#1006170
pU 0 6 <0
#1006180
pD 6 0 <0
#1006190
pU 0 6 <0
#1006200
pD 6 0 <0
#1006210
pU 0 6 <0
#1006220
pD 6 0 <0
#1006230
pU 0 6 <0
#1006240
pD 6 0 <0
#1006250
pU 0 6 <0
#1006260
pD 6 0 <0
#1006270
pU 0 6 <0
#1006280
pD 6 0 <0
#1006290
pU 0 6 <0
#1006300
pD 6 0 <0
#1006310
pU 0 6 <0
#1006320
pD 6 0 <0
#1006330
pU 0 6 <0
#1006340
pD 6 0 <0
#1006350
pU 0 6 <0
#1006360
pD 6 0 <0
#1006370
pU 0 6 <0
#1006380
pD 6 0 <0
#1006390
pU 0 6 <0
#1006400
pD 6 0 <0
#1006410
pU 0 6 <0
#1006420
pD 6 0 <0
#1006430
pU 0 6 <0
#1006440
pD 6 0 <0
#1006450
pU 0 6 <0
#1006460
pD 6 0 <0
#1006470
pU 0 6 <0
#1006480
pD 6 0 <0
#1006490
pU 0 6 <0
#1006500
pD 6 0 <0
#1006510
pU 0 6 <0
#1006520
pD 6 0 <0
#1006530
pU 0 6 <0
#1006540
pD 6 0 <0
#1006550
pU 0 6 <0
#1006560
pD 6 0 <0
#1006570
pU 0 6 <0
#1006580
pD 6 0 <0
#1006590
pU 0 6 <0
#1006600
pD 6 0 <0
#1006610
pU 0 6 <0
#1006620
pD 6 0 <0
#1006630
pU 0 6 <0
#1006640
pD 6 0 <0
#1006650
pU 0 6 <0
#1006660
pD 6 0 <0
#1006670
pU 0 6 <0
#1006680
pD 6 0 <0
#1006690
pU 0 6 <0
#1006700
pD 6 0 <0
#1006710
pU 0 6 <0
pH 0 6 <3
#1006720
pD 6 0 <0
#1006730
pU 0 6 <0
#1006740
pD 6 0 <0
#1006750
pU 0 6 <0
#1006760
pD 6 0 <0
#1006770
pU 0 6 <0
#1006780
pD 6 0 <0
#1006790
pU 0 6 <0
#1006800
pD 6 0 <0
#1006810
pU 0 6 <0
#1006820
pD 6 0 <0
#1006830
pU 0 6 <0
#1006840
pD 6 0 <0
#1006850
pU 0 6 <0
#1006860
pD 6 0 <0
#1006870
pU 0 6 <0
#1006880
pD 6 0 <0
#1006890
pU 0 6 <0
#1006900
pD 6 0 <0
#1006910
pU 0 6 <0
#1006920
pD 6 0 <0
#1006930
pU 0 6 <0
#1006940
pD 6 0 <0
#1006950
pU 0 6 <0
#1006960
pD 6 0 <0
#1006970
pU 0 6 <0
#1006980
pD 6 0 <0
#1006990
pU 0 6 <0
#1007000
pD 6 0 <0
#1007010
pU 0 6 <0
#1007020
pD 6 0 <0
#1007030
pU 0 6 <0
#1007040
pD 6 0 <0
#1007050
pU 0 6 <0
#1007060
pD 6 0 <0
#1007070
pU 0 6 <0
#1007080
pD 6 0 <0
#1007090
pU 0 6 <0
#1007100
pD 6 0 <0
#1007110
pU 0 6 <0
pL 6 0 <3
#1007120
pD 6 0 <0
#1007130
pU 0 6 <0
#1007140
pD 6 0 <0
#1007150
pU 0 6 <0
#1007160
pD 6 0 <0
#1007170
pU 0 6 <0
#1007180
pD 6 0 <0
#1007190
pU 0 6 <0
#1007200
pD 6 0 <0
#1007210
pU 0 6 <0
#1007220
pD 6 0 <0
#1007230
pU 0 6 <0
#1007240
pD 6 0 <0
#1007250
pU 0 6 <0
#1007260
pD 6 0 <0
#1007270
pU 0 6 <0
#1007280
pD 6 0 <0
#1007290
pU 0 6 <0
#1007300
pD 6 0 <0
#1007310
pU 0 6 <0
#1007320
pD 6 0 <0
#1007330
pU 0 6 <0
#1007340
pD 6 0 <0
#1007350
pU 0 6 <0
#1007360
pD 6 0 <0
#1007370
pU 0 6 <0
#1007380
pD 6 0 <0
#1007390
pU 0 6 <0
#1007400
pD 6 0 <0
#1007410
pU 0 6 <0
#1007420
pD 6 0 <0
#1007430
pU 0 6 <0
#1007440
pD 6 0 <0
#1007450
pU 0 6 <0
#1007460
pD 6 0 <0
#1007470
pU 0 6 <0
#1007480
pD 6 0 <0
#1007490
pU 0 6 <0
#1007500
pD 6 0 <0
#1007510
pU 0 6 <0
#1007520
pD 6 0 <0
#1007530
pU 0 6 <0
#1007540
pD 6 0 <0
#1007550
pU 0 6 <0
#1007560
pD 6 0 <0
#1007570
pU 0 6 <0
#1007580
pD 6 0 <0
#1007590
pU 0 6 <0
#1007600
pD 6 0 <0
#1007610
pU 0 6 <0
#1007620
pD 6 0 <0
#1007630
pU 0 6 <0
#1007640
pD 6 0 <0
#1007650
pU 0 6 <0
#1007660
pD 6 0 <0
#1007670
pU 0 6 <0
#1007680
pD 6 0 <0
#1007690
pU 0 6 <0
#1007700
pD 6 0 <0
#1007710
pU 0 6 <0
#1007720
pD 6 0 <0
#1007730
pU 0 6 <0
#1007740
pD 6 0 <0
#1007750
pU 0 6 <0
#1007760
pD 6 0 <0
#1007770
pU 0 6 <0
#1007780
pD 6 0 <0
#1007790
pU 0 6 <0
#1007800
pD 6 0 <0
#1007810
pU 0 6 <0
#1007820
pD 6 0 <0
#1007830
pU 0 6 <0
#1007840
pD 6 0 <0
#1007850
pU 0 6 <0
#1007860
pD 6 0 <0
#1007870
pU 0 6 <0
#1007880
pD 6 0 <0
#1007890
pU 0 6 <0
#1007900
pD 6 0 <0
#1007910
pU 0 6 <0
#1007920
pD 6 0 <0
#1007930
pU 0 6 <0
#1007940
pD 6 0 <0
#1007950
pU 0 6 <0
#1007960
pD 6 0 <0
#1007970
pU 0 6 <0
#1007980
pD 6 0 <0
#1007990
pU 0 6 <0
#1008000
pD 6 0 <0
#1008010
pU 0 6 <0
#1008020
pD 6 0 <0
#1008030
pU 0 6 <0
pH 0 6 <3
#1008040
pD 6 0 <0
#1008050
pU 0 6 <0
#1008060
pD 6 0 <0
#1008070
pU 0 6 <0
#1008080
pD 6 0 <0
#1008090
pU 0 6 <0
#1008100
pD 6 0 <0
#1008110
pU 0 6 <0
#1008120
pD 6 0 <0
#1008130
pU 0 6 <0
#1008140
pD 6 0 <0
#1008150
pU 0 6 <0
#1008160
pD 6 0 <0
#1008170
pU 0 6 <0
#1008180
pD 6 0 <0
#1008190
pU 0 6 <0
#1008200
pD 6 0 <0
#1008210
pU 0 6 <0
#1008220
pD 6 0 <0
#1008230
pU 0 6 <0
#1008240
pD 6 0 <0
#1008250
pU 0 6 <0
#1008260
pD 6 0 <0
#1008270
pU 0 6 <0
#1008280
pD 6 0 <0
#1008290
pU 0 6 <0
#1008300
pD 6 0 <0
#1008310
pU 0 6 <0
#1008320
pD 6 0 <0
#1008330
pU 0 6 <0
#1008340
pD 6 0 <0
#1008350
pU 0 6 <0
#1008360
pD 6 0 <0
#1008370
pU 0 6 <0
#1008380
pD 6 0 <0
#1008390
pU 0 6 <0
#1008400
pD 6 0 <0
#1008410
pU 0 6 <0
#1008420
pD 6 0 <0
#1008430
pU 0 6 <0
pL 6 0 <3
#1008440
pD 6 0 <0
#1008450
pU 0 6 <0
#1008460
pD 6 0 <0
#1008470
pU 0 6 <0
#1008480
pD 6 0 <0
#1008490
pU 0 6 <0
#1008500
pD 6 0 <0
#1008510
pU 0 6 <0
#1008520
pD 6 0 <0
#1008530
pU 0 6 <0
#1008540
pD 6 0 <0
#1008550
pU 0 6 <0
#1008560
pD 6 0 <0
#1008570
pU 0 6 <0
#1008580
pD 6 0 <0
#1008590
pU 0 6 <0
#1008600
pD 6 0 <0
#1008610
pU 0 6 <0
#1008620
pD 6 0 <0
#1008630
pU 0 6 <0
#1008640
pD 6 0 <0
#1008650
pU 0 6 <0
#1008660
pD 6 0 <0
#1008670
pU 0 6 <0
#1008680
pD 6 0 <0
#1008690
pU 0 6 <0
#1008700
pD 6 0 <0
#1008710
pU 0 6 <0
#1008720
pD 6 0 <0
#1008730
pU 0 6 <0
#1008740
pD 6 0 <0
#1008750
pU 0 6 <0
#1008760
pD 6 0 <0
#1008770
pU 0 6 <0
#1008780
pD 6 0 <0
#1008790
pU 0 6 <0
#1008800
pD 6 0 <0
#1008810
pU 0 6 <0
#1008820
pD 6 0 <0
#1008830
pU 0 6 <0
#1008840
pD 6 0 <0
#1008850
pU 0 6 <0
#1008860
pD 6 0 <0
#1008870
pU 0 6 <0
#1008880
pD 6 0 <0
#1008890
pU 0 6 <0
#1008900
pD 6 0 <0
#1008910
pU 0 6 <0
#1008920
pD 6 0 <0
#1008930
pU 0 6 <0
#1008940
pD 6 0 <0
#1008950
pU 0 6 <0
#1008960
pD 6 0 <0
#1008970
pU 0 6 <0
#1008980
pD 6 0 <0
#1008990
pU 0 6 <0
#1009000
pD 6 0 <0
#1009010
pU 0 6 <0
#1009020
pD 6 0 <0
#1009030
pU 0 6 <0
#1009040
pD 6 0 <0
#1009050
pU 0 6 <0
#1009060
pD 6 0 <0
#1009070
pU 0 6 <0
#1009080
pD 6 0 <0
#1009090
pU 0 6 <0
#1009100
pD 6 0 <0
#1009110
pU 0 6 <0
#1009120
pD 6 0 <0
#1009130
pU 0 6 <0
#1009140
pD 6 0 <0
#1009150
pU 0 6 <0
#1009160
pD 6 0 <0
#1009170
pU 0 6 <0
#1009180
pD 6 0 <0
#1009190
pU 0 6 <0
#1009200
pD 6 0 <0
#1009210
pU 0 6 <0
#1009220
pD 6 0 <0
#1009230
pU 0 6 <0
#1009240
pD 6 0 <0
#1009250
pU 0 6 <0
#1009260
pD 6 0 <0
#1009270
pU 0 6 <0
#1009280
pD 6 0 <0
#1009290
pU 0 6 <0
#1009300
pD 6 0 <0
#1009310
pU 0 6 <0
#1009320
pD 6 0 <0
#1009330
pU 0 6 <0
#1009340
pD 6 0 <0
#1009350
pU 0 6 <0
pH 0 6 <3
#1009360
pD 6 0 <0
#1009370
pU 0 6 <0
#1009380
pD 6 0 <0
#1009390
pU 0 6 <0
#1009400
pD 6 0 <0
#1009410
pU 0 6 <0
#1009420
pD 6 0 <0
#1009430
pU 0 6 <0
#1009440
pD 6 0 <0
#1009450
pU 0 6 <0
#1009460
pD 6 0 <0
#1009470
pU 0 6 <0
#1009480
pD 6 0 <0
#1009490
pU 0 6 <0
#1009500
pD 6 0 <0
#1009510
pU 0 6 <0
#1009520
pD 6 0 <0
#1009530
pU 0 6 <0
#1009540
pD 6 0 <0
#1009550
pU 0 6 <0
#1009560
pD 6 0 <0
#1009570
pU 0 6 <0
#1009580
pD 6 0 <0
#1009590
pU 0 6 <0
#1009600
pD 6 0 <0
#1009610
pU 0 6 <0
#1009620
pD 6 0 <0
#1009630
pU 0 6 <0
#1009640
pD 6 0 <0
#1009650
pU 0 6 <0
#1009660
pD 6 0 <0
#1009670
pU 0 6 <0
